Suite/Test/Step Name,Browser,Description,Tag,Start time,End time,Duration,Status
Login,,,,2021-01-20 11:44:44,2021-01-20 11:44:49,5.185s,FAILED
,,,,,,,
Test Cases/Login and Navigate,,"As a user, I want to login to SwagLabs navigate around and logout.",,2021-01-20 11:44:46,2021-01-20 11:44:47,1.514s,FAILED
"openBrowser("""")",,,,2021-01-20 11:44:46,2021-01-20 11:44:47,0.862s,FAILED
,,,,,,,
Test Cases/Login InValid,,"As a user, I want to login to SwagLabs with an invalid credential.",,2021-01-20 11:44:47,2021-01-20 11:44:48,0.639s,FAILED
"openBrowser("""")",,,,2021-01-20 11:44:48,2021-01-20 11:44:48,0.063s,FAILED
,,,,,,,
Test Cases/Variable Login and Logout Test,,"As a user, I want to login to SwagLabs with all available Credentials as local Variables and Logout.",,2021-01-20 11:44:48,2021-01-20 11:44:49,0.980s,FAILED
"openBrowser("""")",,,,2021-01-20 11:44:49,2021-01-20 11:44:49,0.033s,FAILED
